%YAML 1.1
%TAG !u! tag:unity3d.com,2011:
--- !u!162 &1
EditorUserSettings:
  m_ObjectHideFlags: 0
  serializedVersion: 4
  m_ConfigSettings:
    RecentlyUsedSceneGuid-0:
      value: 5a08575f5207595a0f5d59741173094444164f7d7d2a23317c7a4465bbe1646d
      flags: 0
    RecentlyUsedSceneGuid-1:
      value: 5655555757075b0a5a5e592644720b44174e4c7d2e7d243574284531e1b26360
      flags: 0
    RecentlyUsedSceneGuid-2:
      value: 0509555e54560f0c5c560f7546215c44474f1e7b787e7e64787d4e32b0b4376c
      flags: 0
    RecentlyUsedSceneGuid-3:
      value: 500356525c0508580b565a271221084415164029297177612e7d4a64bbe1613b
      flags: 0
    RecentlyUsedSceneGuid-4:
      value: 5254010703075b090b59557a43200c4414154e287a7970342f794d6be1e2656b
      flags: 0
    RecentlyUsedSceneGuid-5:
      value: 0107575554505a0b0e0b557346770a444f4f4b782a787f327c794437b2b9623e
      flags: 0
    RecentlyUsedSceneGuid-6:
      value: 0604060352575d0a5b0a5c73432006444f1519297c7d7e68747a4931b4b7363d
      flags: 0
    vcSharedLogLevel:
      value: 0d5e400f0650
      flags: 0
  m_VCAutomaticAdd: 1
  m_VCDebugCom: 0
  m_VCDebugCmd: 0
  m_VCDebugOut: 0
  m_SemanticMergeMode: 2
  m_DesiredImportWorkerCount: 3
  m_StandbyImportWorkerCount: 2
  m_IdleImportWorkerShutdownDelay: 60000
  m_VCShowFailedCheckout: 1
  m_VCOverwriteFailedCheckoutAssets: 1
  m_VCProjectOverlayIcons: 1
  m_VCHierarchyOverlayIcons: 1
  m_VCOtherOverlayIcons: 1
  m_VCAllowAsyncUpdate: 1
  m_ArtifactGarbageCollection: 1
